Project,Github Link,Github Repo
Anki-Android,https://github.com/ankidroid/Anki-Android,git@github.com:ankidroid/Anki-Android.git
AntennaPod,https://github.com/AntennaPod/AntennaPod,git@github.com:AntennaPod/AntennaPod.git
connectbot,https://github.com/connectbot/connectbot,git@github.com:connectbot/connectbot.git
Conversations,https://github.com/siacs/Conversations,git@github.com:siacs/Conversations.git
FairEmail,https://github.com/M66B/FairEmail,git@github.com:M66B/FairEmail.git
FBReaderJ,https://github.com/geometer/FBReaderJ,git@github.com:geometer/FBReaderJ.git
FP2-Launcher,https://github.com/WeAreFairphone/FP2-Launcher,git@github.com:WeAreFairphone/FP2-Launcher.git
k-9,https://github.com/k9mail/k-9,git@github.com:k9mail/k-9.git
Launcher3,https://github.com/amirzaidi/Launcher3,git@github.com:amirzaidi/Launcher3.git
Lawnchair-V1,https://github.com/LawnchairLauncher/Lawnchair-V1,git@github.com:LawnchairLauncher/Lawnchair-V1.git
Mozstumbler,https://github.com/mozilla/MozStumbler,git@github.com:mozilla/MozStumbler.git
MyExpenses,https://github.com/mtotschnig/MyExpenses,git@github.com:mtotschnig/MyExpenses.git
NewsBlur,https://github.com/samuelclay/NewsBlur,git@github.com:samuelclay/NewsBlur.git
nextcloud,https://github.com/nextcloud/android,git@github.com:nextcloud/android.git
owncloud,https://github.com/owncloud/android,git@github.com:owncloud/android.git
Pix-Art-Messenger,https://github.com/kriztan/Pix-Art-Messenger,git@github.com:kriztan/Pix-Art-Messenger.git
PressureNet,https://github.com/Cbsoftware/PressureNet,git@github.com:Cbsoftware/PressureNet.git
Signal-Android,https://github.com/signalapp/Signal-Android,git@github.com:signalapp/Signal-Android.git
surespot,https://github.com/surespot/android,git@github.com:surespot/android.git
Wordpress-Android,https://github.com/wordpress-mobile/WordPress-Android,git@github.com:wordpress-mobile/WordPress-Android.git
